[
  {
    "id": 1,
    "name": "Cayo Largo, Cuba",
    "slogan": "Disfruta de sus bellos paisajes y sus excelentes playas.",
    "latitude": "22.4138318",
    "longitude": "-83.4781625",
    "order": 1,
    "created_at": "2019-04-09 00:00:00",
    "updated_at": "2019-04-09 00:00:00",
    "descriptions": [
      {
        "id": 7,
        "text": "Cayo Largo del Sur es uno de los destinos turísticos más atractivos de Cuba que se encuentra en el extremo Este del Archipiélago de los Canarreos, en Isla de la Juventud. Bañado por las aguas del Caribe, es el lugar perfecto si buscas paradisíacas playas de fina arena blanca, una infinidad de preciosos arrecifes de coral, espectaculares resorts y turistas de todo el mundo.",
        "value_id": 1,
        "types_id": 2,
        "created_at": "2019-04-09 00:00:00",
        "updated_at": "2019-04-09 00:00:00"
      }
    ],
    "places": [
      {
        "id": 1,
        "name": "Playa Paraíso",
        "address": null,
        "opening_hours": null,
        "latitude": "21.5947925",
        "longitude": "-81.5565779",
        "phone": null,
        "url": null,
        "status": 1,
        "cities_id": 1,
        "categories_id": 1,
        "created_at": "2019-04-09 00:00:00",
        "updated_at": "2019-04-09 00:00:00",
        "category": {
          "id": 1,
          "name": "Lugares",
          "created_at": null,
          "updated_at": null
        },
        "tags": [
          {
            "id": 1,
            "tag_value": "Playa",
            "created_at": null,
            "updated_at": null
          },
          {
            "id": 2,
            "tag_value": "Entretenimiento",
            "created_at": null,
            "updated_at": null
          },
          {
            "id": 3,
            "tag_value": "Actividades al aire libre",
            "created_at": null,
            "updated_at": null
          },
          {
            "id": 4,
            "tag_value": "Gratuito",
            "created_at": null,
            "updated_at": null
          }
        ],
        "descriptions": [
          {
            "id": 1,
            "text": "La más famosa entre las playas de Cayo Largo del Sur, una playa de postal distinguida por diversas publicaciones entre las mejores playas de Cuba, con suaves arenas blancas y calmas aguas turquesas. Playa Paraíso se encuentra ubicada hacia el oeste de la isla, alejada de los grandes hoteles, entre Playa Punta Mal Tiempo y Playa Sirena, con solo un pequeño bar donde disfrutar de un refresco frente al mar y algunos servicios de arriendo de palapas y sillas.",
            "value_id": 1,
            "types_id": 5,
            "created_at": "2019-04-09 00:00:00",
            "updated_at": "2019-04-09 00:00:00"
          }
        ],
        "beacons": [
          {
            "id": 1,
            "minor": "016554",
            "uuid": "016554",
            "latitude": "0",
            "longitude": "0",
            "model": "A",
            "reference": "G",
            "status": 1,
            "places_id": 1,
            "photos_id": null,
            "descriptions": [
              {
                "id": 10,
                "text": "Cayo Largo del Sur es uno de los destinos turísticos más atractivos de Cuba que se encuentra en el extremo Este del Archipiélago de los Canarreos, en Isla de la Juventud. Bañado por las aguas del Caribe, es el lugar perfecto si buscas paradisíacas playas de fina arena blanca, una infinidad de preciosos arrecifes de coral, espectaculares resorts y turistas de todo el mundo.",
                "value_id": 1,
                "types_id": 3,
                "created_at": "2019-04-09 00:00:00",
                "updated_at": "2019-04-09 00:00:00"
              }
            ]
          }
        ],
        "events": [
          {
            "id": 8,
            "name": "Primeras inmersiones de buceo.",
            "start_date": "2019-06-22 00:00:00",
            "end_date": "2019-06-22 00:00:00",
            "start_time": "14:00:00",
            "end_time": "17:00:00",
            "status": 1,
            "created_at": "2019-04-09 00:00:00",
            "updated_at": "2019-04-09 00:00:00",
            "descriptions": [
              {
                "id": 41,
                "text": "Cuba es un destino placentero para el buceo, cuyas atracciones encantan a buzos principiantes, profesionales y entusiastas.",
                "value_id": 8,
                "types_id": 4,
                "created_at": "2019-04-09 00:00:00",
                "updated_at": "2019-04-09 00:00:00"
              }
            ],
            "tags": []
          }
        ],
        "surveys": [
          {
            "id": 37,
            "order": 1,
            "question": "Limpieza del lugar.",
            "places_id": 1,
            "created_at": "2019-04-20 00:00:00",
            "updated_at": "2019-04-20 00:00:00"
          },
          {
            "id": 38,
            "order": 2,
            "question": "Precio de la entrada.",
            "places_id": 1,
            "created_at": "2019-04-20 00:00:00",
            "updated_at": "2019-04-21 00:00:00"
          },
          {
            "id": 39,
            "order": 3,
            "question": "Señalización",
            "places_id": 1,
            "created_at": "2019-04-20 00:00:00",
            "updated_at": "2019-04-21 00:00:00"
          }
        ]
      },
      {
        "id": 2,
        "name": "Hotel Sol Cayo Largo",
        "address": "Cayo Largo del Sur, Archipiélago de los Canarreos, Cuba",
        "opening_hours": "Check in: 15:00 - 00:00 hrs",
        "latitude": "21.5994625",
        "longitude": "-81.5317887",
        "phone": "+53 45 248260",
        "url": "http://www.hotelsolcayolargo.com/",
        "status": 1,
        "cities_id": 1,
        "categories_id": 2,
        "created_at": "2019-04-09 00:00:00",
        "updated_at": "2019-04-09 00:00:00",
        "category": {
          "id": 2,
          "name": "Servicios",
          "created_at": null,
          "updated_at": null
        },
        "tags": [
          {
            "id": 7,
            "tag_value": "Hotel",
            "created_at": null,
            "updated_at": null
          },
          {
            "id": 8,
            "tag_value": "Restaurante",
            "created_at": null,
            "updated_at": null
          },
          {
            "id": 16,
            "tag_value": "Bar",
            "created_at": null,
            "updated_at": null
          }
        ],
        "descriptions": [
          {
            "id": 2,
            "text": "Resort Todo Incluido 4 Estrellas, ubicado en Cayo Largo del Sur, en pleno Mar Caribe. Ideal para estar en contacto con un entorno virginal, descubrir rincones de ensueño y maravillarse con incomparables fondos marinos. Posee un frente de 600 metros de playa de arena blanca que siempre se mantiene fresca. Recomendado para parejas, bodas, lunas de miel y grupos.",
            "value_id": 2,
            "types_id": 5,
            "created_at": "2019-04-09 00:00:00",
            "updated_at": "2019-04-09 00:00:00"
          }
        ],
        "beacons": [
          {
            "id": 2,
            "minor": "015471",
            "uuid": "016554",
            "latitude": "0",
            "longitude": "0",
            "model": "A",
            "reference": "G",
            "status": 1,
            "places_id": 2,
            "photos_id": null,
            "descriptions": [
              {
                "id": 13,
                "text": "Prueba Beacon 2",
                "value_id": 2,
                "types_id": 3,
                "created_at": "2019-04-09 00:00:00",
                "updated_at": "2019-04-09 00:00:00"
              }
            ]
          }
        ],
        "events": [],
        "surveys": [
          {
            "id": 1,
            "order": 1,
            "question": "Cómo calificaría la cortesía y trato de los empleados",
            "places_id": 2,
            "created_at": null,
            "updated_at": null
          },
          {
            "id": 2,
            "order": 2,
            "question": "La rapidez con la que le fue otorgado el servicio",
            "places_id": 2,
            "created_at": null,
            "updated_at": null
          },
          {
            "id": 3,
            "order": 3,
            "question": "Cómo calificaría la limpieza",
            "places_id": 2,
            "created_at": null,
            "updated_at": null
          },
          {
            "id": 4,
            "order": 4,
            "question": "La relación precio / calidad del servicio es",
            "places_id": 2,
            "created_at": null,
            "updated_at": null
          }
        ]
      },
      {
        "id": 7,
        "name": "Playa Sirena",
        "address": null,
        "opening_hours": null,
        "latitude": "21.6066222",
        "longitude": "-81.5727984",
        "phone": null,
        "url": null,
        "status": 1,
        "cities_id": 1,
        "categories_id": 1,
        "created_at": "2019-04-09 00:00:00",
        "updated_at": "2019-04-09 00:00:00",
        "category": {
          "id": 1,
          "name": "Lugares",
          "created_at": null,
          "updated_at": null
        },
        "tags": [
          {
            "id": 1,
            "tag_value": "Playa",
            "created_at": null,
            "updated_at": null
          },
          {
            "id": 2,
            "tag_value": "Entretenimiento",
            "created_at": null,
            "updated_at": null
          },
          {
            "id": 3,
            "tag_value": "Actividades al aire libre",
            "created_at": null,
            "updated_at": null
          },
          {
            "id": 4,
            "tag_value": "Gratuito",
            "created_at": null,
            "updated_at": null
          }
        ],
        "descriptions": [
          {
            "id": 20,
            "text": "Playa Sirena se encuentra ubicada en Cayo Largo, en Isla de la Juventud. Es la más extensa de la zona y se orienta hacia el oeste, donde los más de 2 km de arena fija se protegen del oleaje y el viento. ",
            "value_id": 7,
            "types_id": 5,
            "created_at": "2019-04-09 00:00:00",
            "updated_at": "2019-04-09 00:00:00"
          }
        ],
        "beacons": [
          {
            "id": 7,
            "minor": "016594",
            "uuid": "0",
            "latitude": "0",
            "longitude": "0",
            "model": "A",
            "reference": "G",
            "status": 1,
            "places_id": 7,
            "photos_id": null,
            "descriptions": [
              {
                "id": 18,
                "text": "Prueba Beacon 7",
                "value_id": 7,
                "types_id": 3,
                "created_at": "2019-04-09 00:00:00",
                "updated_at": "2019-04-09 00:00:00"
              }
            ]
          }
        ],
        "events": [
          {
            "id": 1,
            "name": "Torneo de Voleibol de Playa NORCECA 2019",
            "start_date": "2019-06-13 00:00:00",
            "end_date": "2019-06-16 00:00:00",
            "start_time": "08:00:00",
            "end_time": "14:00:00",
            "status": 1,
            "created_at": "2019-04-09 00:00:00",
            "updated_at": "2019-04-09 00:00:00",
            "descriptions": [
              {
                "id": 11,
                "text": "Cuba organizará el torneo clasificatorio Final Four de la Copa Continental Challenge de Norte, Centroamérica y del Caribe (Norceca) de voleibol, del 13 al 16 de junio. Entre los participantes de este torneo se encuentran los selectivos de México, República Dominicana, Puerto Rico y, por supuesto, Cuba. El equipo ganador recibirá la última plaza para participar en la Copa Challenge masculina en la Liga de Naciones de Voleibol de la Federación Internacional (FIVB).",
                "value_id": 1,
                "types_id": 4,
                "created_at": "2019-04-09 00:00:00",
                "updated_at": "2019-04-09 00:00:00"
              }
            ],
            "tags": [
              {
                "id": 5,
                "tag_value": "Deportes",
                "created_at": null,
                "updated_at": null
              }
            ]
          }
        ],
        "surveys": [
          {
            "id": 46,
            "order": 1,
            "question": "Limpieza del lugar.",
            "places_id": 7,
            "created_at": "2019-04-20 00:00:00",
            "updated_at": "2019-04-21 00:00:00"
          },
          {
            "id": 47,
            "order": 2,
            "question": "Precio de la entrada.",
            "places_id": 7,
            "created_at": "2019-04-20 00:00:00",
            "updated_at": "2019-04-21 00:00:00"
          },
          {
            "id": 48,
            "order": 3,
            "question": "Señalización",
            "places_id": 7,
            "created_at": "2019-04-20 00:00:00",
            "updated_at": "2019-04-21 00:00:00"
          }
        ]
      },
      {
        "id": 9,
        "name": "Hotel Pelícano",
        "address": "Cayo largo del sur, 12345 Cayo Largo del Sur, Cuba",
        "opening_hours": "Check in: 15:00 - 00:00 hrs",
        "latitude": "21.6018841",
        "longitude": "-81.5251847",
        "phone": "+53 7 2046366",
        "url": "hotelsolpelicano.com",
        "status": 1,
        "cities_id": 1,
        "categories_id": 1,
        "created_at": "2019-04-09 00:00:00",
        "updated_at": "2019-04-09 00:00:00",
        "category": {
          "id": 1,
          "name": "Lugares",
          "created_at": null,
          "updated_at": null
        },
        "tags": [
          {
            "id": 7,
            "tag_value": "Hotel",
            "created_at": null,
            "updated_at": null
          }
        ],
        "descriptions": [
          {
            "id": 21,
            "text": "Hotel 4 estrellas, Todo Incluido. Está ubicado frente al mar, a 15 minutos de la Marina y a 5 minutos del Aeropuerto Internacional Juan Vitalio Acuña",
            "value_id": 9,
            "types_id": 5,
            "created_at": "2019-04-09 00:00:00",
            "updated_at": "2019-04-09 00:00:00"
          }
        ],
        "beacons": [],
        "events": [
          {
            "id": 3,
            "name": "INTERNATIONAL CUBAN DANCE FESTIVAL 2019",
            "start_date": "2019-06-24 00:00:00",
            "end_date": "2019-06-29 00:00:00",
            "start_time": "09:00:00",
            "end_time": "19:00:00",
            "status": 1,
            "created_at": "2019-04-09 00:00:00",
            "updated_at": "2019-04-09 00:00:00",
            "descriptions": [
              {
                "id": 36,
                "text": "Este festival presentará por primer vez a las mejores bailarinas cubanas de todo el mundo. Se reunirán durante una semana para compartir con los estudiantes lo mejor de la danza cubana.",
                "value_id": 3,
                "types_id": 4,
                "created_at": "2019-04-09 00:00:00",
                "updated_at": "2019-04-09 00:00:00"
              }
            ],
            "tags": []
          }
        ],
        "surveys": [
          {
            "id": 52,
            "order": 1,
            "question": "Limpieza del lugar.",
            "places_id": 9,
            "created_at": "2019-04-20 00:00:00",
            "updated_at": "2019-04-21 00:00:00"
          },
          {
            "id": 53,
            "order": 2,
            "question": "Precio de la entrada.",
            "places_id": 9,
            "created_at": "2019-04-20 00:00:00",
            "updated_at": "2019-04-21 00:00:00"
          },
          {
            "id": 54,
            "order": 3,
            "question": "Señalización",
            "places_id": 9,
            "created_at": "2019-04-20 00:00:00",
            "updated_at": "2019-04-21 00:00:00"
          }
        ]
      },
      {
        "id": 10,
        "name": "Ranchon Los Quelonios",
        "address": "Cayo Largo, Cuba",
        "opening_hours": "Horario: 12:00 - 22:00 hrs",
        "latitude": "21.6037462",
        "longitude": "-81.528063,18z",
        "phone": null,
        "url": null,
        "status": 1,
        "cities_id": 1,
        "categories_id": 2,
        "created_at": "2019-04-09 00:00:00",
        "updated_at": "2019-04-09 00:00:00",
        "category": {
          "id": 2,
          "name": "Servicios",
          "created_at": null,
          "updated_at": null
        },
        "tags": [
          {
            "id": 8,
            "tag_value": "Restaurante",
            "created_at": null,
            "updated_at": null
          },
          {
            "id": 16,
            "tag_value": "Bar",
            "created_at": null,
            "updated_at": null
          }
        ],
        "descriptions": [
          {
            "id": 22,
            "text": "Restaurante al aire libre, a la carta para cenar y cocina cubana.",
            "value_id": 10,
            "types_id": 5,
            "created_at": "2019-04-09 00:00:00",
            "updated_at": "2019-04-09 00:00:00"
          }
        ],
        "beacons": [],
        "events": [],
        "surveys": [
          {
            "id": 13,
            "order": 1,
            "question": "Cómo calificaría la cortesía y trato de los empleados",
            "places_id": 10,
            "created_at": "2019-04-20 00:00:00",
            "updated_at": "2019-04-20 00:00:00"
          },
          {
            "id": 14,
            "order": 2,
            "question": "La rapidez con la que le fue otorgado el servicio",
            "places_id": 10,
            "created_at": "2019-04-20 00:00:00",
            "updated_at": "2019-04-20 00:00:00"
          },
          {
            "id": 15,
            "order": 3,
            "question": "Cómo calificaría la limpieza",
            "places_id": 10,
            "created_at": "2019-04-20 00:00:00",
            "updated_at": "2019-04-20 00:00:00"
          },
          {
            "id": 16,
            "order": 4,
            "question": "La relación precio / calidad del servicio es",
            "places_id": 10,
            "created_at": "2019-04-20 00:00:00",
            "updated_at": "2019-04-20 00:00:00"
          }
        ]
      },
      {
        "id": 11,
        "name": "Zun Zun Café",
        "address": "Hotel Pelicano, del Sur, Cayo Largo, Cuba",
        "opening_hours": "Horario: 08:00 - 18:00 hrs",
        "latitude": "21.6016866",
        "longitude": "-81.5224905",
        "phone": null,
        "url": null,
        "status": 1,
        "cities_id": 1,
        "categories_id": 2,
        "created_at": null,
        "updated_at": null,
        "category": {
          "id": 2,
          "name": "Servicios",
          "created_at": null,
          "updated_at": null
        },
        "tags": [
          {
            "id": 8,
            "tag_value": "Restaurante",
            "created_at": null,
            "updated_at": null
          },
          {
            "id": 9,
            "tag_value": "Baile",
            "created_at": null,
            "updated_at": null
          },
          {
            "id": 16,
            "tag_value": "Bar",
            "created_at": null,
            "updated_at": null
          }
        ],
        "descriptions": [
          {
            "id": 23,
            "text": " Snack bar /Grill al aire libre",
            "value_id": 11,
            "types_id": 5,
            "created_at": "2019-04-09 00:00:00",
            "updated_at": "2019-04-09 00:00:00"
          }
        ],
        "beacons": [],
        "events": [],
        "surveys": [
          {
            "id": 17,
            "order": 1,
            "question": "Cómo calificaría la cortesía y trato de los empleados",
            "places_id": 11,
            "created_at": "2019-04-20 00:00:00",
            "updated_at": "2019-04-20 00:00:00"
          },
          {
            "id": 18,
            "order": 2,
            "question": "La rapidez con la que le fue otorgado el servicio",
            "places_id": 11,
            "created_at": "2019-04-20 00:00:00",
            "updated_at": "2019-04-20 00:00:00"
          },
          {
            "id": 19,
            "order": 3,
            "question": "Cómo calificaría la limpieza",
            "places_id": 11,
            "created_at": "2019-04-20 00:00:00",
            "updated_at": "2019-04-20 00:00:00"
          },
          {
            "id": 20,
            "order": 4,
            "question": "La relación precio / calidad del servicio es",
            "places_id": 11,
            "created_at": "2019-04-20 00:00:00",
            "updated_at": "2019-04-20 00:00:00"
          }
        ]
      }
    ]
  },
  {
    "id": 2,
    "name": "Trinidad, Cuba",
    "slogan": "Conoce la arquitectura que la ciudad tiene para ti.",
    "latitude": "21.7977559",
    "longitude": "-80.0022271",
    "order": 2,
    "created_at": "2019-04-09 00:00:00",
    "updated_at": "2019-04-09 00:00:00",
    "descriptions": [
      {
        "id": 8,
        "text": "La ciudad posee alrededor de cincuenta palacetes e innumerables inmuebles dignos de admirar como la Iglesia Parroquial de la Santísima Trinidad, el Museo Romántico situado en al Palacio Brunet, la Casa Templo de Yemayá, donde se halla un altar dedicado a la divinidad del mar, y muchos más lugares de interés que sin duda le atraparán.",
        "value_id": 2,
        "types_id": 2,
        "created_at": "2019-04-09 00:00:00",
        "updated_at": "2019-04-09 00:00:00"
      }
    ],
    "places": [
      {
        "id": 3,
        "name": "Playa Ancón",
        "address": null,
        "opening_hours": null,
        "latitude": "21.7397676",
        "longitude": "-80.0243498",
        "phone": null,
        "url": null,
        "status": 1,
        "cities_id": 2,
        "categories_id": 1,
        "created_at": "2019-04-09 00:00:00",
        "updated_at": "2019-04-09 00:00:00",
        "category": {
          "id": 1,
          "name": "Lugares",
          "created_at": null,
          "updated_at": null
        },
        "tags": [
          {
            "id": 1,
            "tag_value": "Playa",
            "created_at": null,
            "updated_at": null
          },
          {
            "id": 2,
            "tag_value": "Entretenimiento",
            "created_at": null,
            "updated_at": null
          },
          {
            "id": 3,
            "tag_value": "Actividades al aire libre",
            "created_at": null,
            "updated_at": null
          },
          {
            "id": 4,
            "tag_value": "Gratuito",
            "created_at": null,
            "updated_at": null
          }
        ],
        "descriptions": [
          {
            "id": 3,
            "text": "La playa más paradisíaca de la costa Sur de Cuba, se localiza en la península del mismo nombre, a 12 Km de la ciudad de Trinidad, Declarada por la Unesco Patrimonio de La Humanidad y cerca del macizo montañoso Sierra del Escambray. Es una hermosa playa de arena blanca, aguas tranquilas, transparentes y bellos fondos marinos, con 40 especies de coral, incluyendo paredes con bosques de Coral Negro, y una abundante flora y fauna.",
            "value_id": 3,
            "types_id": 5,
            "created_at": "2019-04-09 00:00:00",
            "updated_at": "2019-04-09 00:00:00"
          }
        ],
        "beacons": [
          {
            "id": 3,
            "minor": "016567",
            "uuid": "016554",
            "latitude": "0",
            "longitude": "0",
            "model": "A",
            "reference": "G",
            "status": 1,
            "places_id": 3,
            "photos_id": null,
            "descriptions": [
              {
                "id": 14,
                "text": "Prueba Beacon 3",
                "value_id": 3,
                "types_id": 3,
                "created_at": "2019-04-09 00:00:00",
                "updated_at": "2019-04-09 00:00:00"
              }
            ]
          }
        ],
        "events": [],
        "surveys": [
          {
            "id": 40,
            "order": 1,
            "question": "Limpieza del lugar.",
            "places_id": 3,
            "created_at": "2019-04-20 00:00:00",
            "updated_at": "2019-04-21 00:00:00"
          },
          {
            "id": 41,
            "order": 2,
            "question": "Precio de la entrada.",
            "places_id": 3,
            "created_at": "2019-04-20 00:00:00",
            "updated_at": "2019-04-21 00:00:00"
          },
          {
            "id": 42,
            "order": 3,
            "question": "Señalización",
            "places_id": 3,
            "created_at": "2019-04-20 00:00:00",
            "updated_at": "2019-04-21 00:00:00"
          }
        ]
      },
      {
        "id": 4,
        "name": "Restaurante Los Conspiradores",
        "address": "Cristo 38 esq. La Escalinata, Plaza Mayor, Trinidad, Cuba.",
        "opening_hours": "Horario: 08:00 - 22:00 hrs",
        "latitude": "21.8065803",
        "longitude": "-79.9863345",
        "phone": "+5355744378",
        "url": "http://losconspiradores.com",
        "status": 1,
        "cities_id": 2,
        "categories_id": 2,
        "created_at": "2019-04-09 00:00:00",
        "updated_at": "2019-04-09 00:00:00",
        "category": {
          "id": 2,
          "name": "Servicios",
          "created_at": null,
          "updated_at": null
        },
        "tags": [
          {
            "id": 8,
            "tag_value": "Restaurante",
            "created_at": null,
            "updated_at": null
          }
        ],
        "descriptions": [
          {
            "id": 4,
            "text": "Se encuentra ubicado sobre una pequeña galería de arte que hay que cruzar para llegar al restaurante. El restaurante cuenta con una terraza dividida en varias zonas, lugar perfecto para cenar y disfrutar mientras tanto de música en vivo.",
            "value_id": 4,
            "types_id": 5,
            "created_at": "2019-04-09 00:00:00",
            "updated_at": "2019-04-09 00:00:00"
          }
        ],
        "beacons": [
          {
            "id": 4,
            "minor": "014676",
            "uuid": "016554",
            "latitude": "0",
            "longitude": "0",
            "model": "A",
            "reference": "G",
            "status": 1,
            "places_id": 4,
            "photos_id": null,
            "descriptions": [
              {
                "id": 15,
                "text": "Prueba Beacon 4",
                "value_id": 4,
                "types_id": 3,
                "created_at": "2019-04-09 00:00:00",
                "updated_at": "2019-04-09 00:00:00"
              }
            ]
          }
        ],
        "events": [
          {
            "id": 4,
            "name": "Havana Salsa Festival",
            "start_date": "2019-07-01 00:00:00",
            "end_date": "2019-07-05 00:00:00",
            "start_time": "09:00:00",
            "end_time": "19:00:00",
            "status": 1,
            "created_at": "2019-04-09 00:00:00",
            "updated_at": "2019-04-09 00:00:00",
            "descriptions": [
              {
                "id": 37,
                "text": "El festival cuenta con más de 60 de los mejores profesores de salsa de toda Cuba y del mundo",
                "value_id": 4,
                "types_id": 4,
                "created_at": "2019-04-09 00:00:00",
                "updated_at": "2019-04-09 00:00:00"
              }
            ],
            "tags": []
          }
        ],
        "surveys": [
          {
            "id": 5,
            "order": 1,
            "question": "Cómo calificaría la cortesía y trato de los empleados",
            "places_id": 4,
            "created_at": "2019-04-20 00:00:00",
            "updated_at": "2019-04-20 00:00:00"
          },
          {
            "id": 6,
            "order": 2,
            "question": "La rapidez con la que le fue otorgado el servicio",
            "places_id": 4,
            "created_at": "2019-04-20 00:00:00",
            "updated_at": "2019-04-20 00:00:00"
          },
          {
            "id": 7,
            "order": 3,
            "question": "Cómo calificaría la limpieza",
            "places_id": 4,
            "created_at": "2019-04-20 00:00:00",
            "updated_at": "2019-04-20 00:00:00"
          },
          {
            "id": 8,
            "order": 4,
            "question": "La relación precio / calidad del servicio es",
            "places_id": 4,
            "created_at": "2019-04-20 00:00:00",
            "updated_at": "2019-04-20 00:00:00"
          }
        ]
      },
      {
        "id": 8,
        "name": "Museo de Arquitectura Colonial",
        "address": "83 Ripalda, Trinidad, Cuba",
        "opening_hours": null,
        "latitude": "21.8049161",
        "longitude": "-79.9844138",
        "phone": null,
        "url": null,
        "status": 1,
        "cities_id": 2,
        "categories_id": 1,
        "created_at": "2019-04-09 00:00:00",
        "updated_at": "2019-04-09 00:00:00",
        "category": {
          "id": 1,
          "name": "Lugares",
          "created_at": null,
          "updated_at": null
        },
        "tags": [
          {
            "id": 10,
            "tag_value": "Museo",
            "created_at": null,
            "updated_at": null
          },
          {
            "id": 14,
            "tag_value": "Sitios Históricos",
            "created_at": null,
            "updated_at": null
          }
        ],
        "descriptions": [
          {
            "id": 24,
            "text": "Único de su tipo en el país, muestra el desarrollo de la casa vernácula y da la clave para la comprensión de la traza urbana de Trinidad",
            "value_id": 8,
            "types_id": 5,
            "created_at": "2019-04-09 00:00:00",
            "updated_at": "2019-04-09 00:00:00"
          }
        ],
        "beacons": [
          {
            "id": 8,
            "minor": "015474",
            "uuid": "0",
            "latitude": "0",
            "longitude": "0",
            "model": "A",
            "reference": "G",
            "status": 1,
            "places_id": 8,
            "photos_id": null,
            "descriptions": [
              {
                "id": 19,
                "text": "Prueba Beacon 8",
                "value_id": 8,
                "types_id": 3,
                "created_at": "2019-04-09 00:00:00",
                "updated_at": "2019-04-09 00:00:00"
              }
            ]
          }
        ],
        "events": [
          {
            "id": 2,
            "name": "FORMA 2019. Encuentro Internacional de Diseño. ”EL FUTURO DISEÑADO”",
            "start_date": "2019-05-24 00:00:00",
            "end_date": "2019-05-25 00:00:00",
            "start_time": "09:00:00",
            "end_time": "17:00:00",
            "status": 1,
            "created_at": "2019-04-09 00:00:00",
            "updated_at": "2019-04-09 00:00:00",
            "descriptions": [
              {
                "id": 12,
                "text": "Invita a la comunidad profesional del diseño a reflexionar sobre la necesidad de proyectar el futuro desde nuestro presente. Si queremos un futuro mejor, una sociedad más plena, hay que comenzar a diseñar hoy, a formar los profesionales del mañana y a construir la responsabilidad del diseño con la preservación de la identidad y el patrimonio de la humanidad. Actuar y pensar el futuro de la profesión en la construcción de una sociedad diversa, sostenible, basada en esquemas de producción.\n",
                "value_id": 2,
                "types_id": 4,
                "created_at": "2019-04-09 00:00:00",
                "updated_at": "2019-04-09 00:00:00"
              }
            ],
            "tags": [
              {
                "id": 6,
                "tag_value": "Académico",
                "created_at": null,
                "updated_at": null
              }
            ]
          }
        ],
        "surveys": [
          {
            "id": 49,
            "order": 1,
            "question": "Limpieza del lugar.",
            "places_id": 8,
            "created_at": "2019-04-20 00:00:00",
            "updated_at": "2019-04-21 00:00:00"
          },
          {
            "id": 50,
            "order": 2,
            "question": "Precio de la entrada.",
            "places_id": 8,
            "created_at": "2019-04-20 00:00:00",
            "updated_at": "2019-04-21 00:00:00"
          },
          {
            "id": 51,
            "order": 3,
            "question": "Señalización",
            "places_id": 8,
            "created_at": "2019-04-20 00:00:00",
            "updated_at": "2019-04-21 00:00:00"
          }
        ]
      },
      {
        "id": 12,
        "name": "Plaza Mayor de Trinidad",
        "address": "Trinidad 62600, Cuba",
        "opening_hours": null,
        "latitude": "21.8049455",
        "longitude": "-79.9848792",
        "phone": null,
        "url": null,
        "status": 1,
        "cities_id": 2,
        "categories_id": 1,
        "created_at": "2019-04-09 00:00:00",
        "updated_at": "2019-04-09 00:00:00",
        "category": {
          "id": 1,
          "name": "Lugares",
          "created_at": null,
          "updated_at": null
        },
        "tags": [
          {
            "id": 14,
            "tag_value": "Sitios Históricos",
            "created_at": null,
            "updated_at": null
          }
        ],
        "descriptions": [
          {
            "id": 25,
            "text": "Es denominada como Plaza Mayor, se le han ido restaurando algunos de sus componentes originales, entre ellos: las copas decorativas de cerámica, los bancos de hierro fundidos, los faroles para el alumbrado, los jardines, etc",
            "value_id": 12,
            "types_id": 5,
            "created_at": "2019-04-09 00:00:00",
            "updated_at": "2019-04-09 00:00:00"
          }
        ],
        "beacons": [],
        "events": [
          {
            "id": 5,
            "name": "Concierto de Suena Habana",
            "start_date": "2019-08-11 00:00:00",
            "end_date": "2019-08-11 00:00:00",
            "start_time": "19:00:00",
            "end_time": "22:00:00",
            "status": 1,
            "created_at": "2019-04-09 00:00:00",
            "updated_at": "2019-04-09 00:00:00",
            "descriptions": [
              {
                "id": 38,
                "text": "Disfruta de la buena música popular bailable",
                "value_id": 5,
                "types_id": 4,
                "created_at": "2019-04-09 00:00:00",
                "updated_at": "2019-04-09 00:00:00"
              }
            ],
            "tags": []
          }
        ],
        "surveys": [
          {
            "id": 55,
            "order": 1,
            "question": "Limpieza del lugar.",
            "places_id": 12,
            "created_at": "2019-04-20 00:00:00",
            "updated_at": "2019-04-21 00:00:00"
          },
          {
            "id": 56,
            "order": 2,
            "question": "Precio de la entrada.",
            "places_id": 12,
            "created_at": "2019-04-20 00:00:00",
            "updated_at": "2019-04-21 00:00:00"
          },
          {
            "id": 57,
            "order": 3,
            "question": "Señalización",
            "places_id": 12,
            "created_at": "2019-04-20 00:00:00",
            "updated_at": "2019-04-21 00:00:00"
          }
        ]
      },
      {
        "id": 13,
        "name": "Parque Natural El Cubano",
        "address": "1 Leoncio Vidal, Santa Clara 50100",
        "opening_hours": null,
        "latitude": "21.8281753",
        "longitude": "-80.0017467",
        "phone": null,
        "url": null,
        "status": 1,
        "cities_id": 2,
        "categories_id": 1,
        "created_at": "2019-04-09 00:00:00",
        "updated_at": "2019-04-09 00:00:00",
        "category": {
          "id": 1,
          "name": "Lugares",
          "created_at": null,
          "updated_at": null
        },
        "tags": [
          {
            "id": 2,
            "tag_value": "Entretenimiento",
            "created_at": null,
            "updated_at": null
          },
          {
            "id": 3,
            "tag_value": "Actividades al aire libre",
            "created_at": null,
            "updated_at": null
          },
          {
            "id": 4,
            "tag_value": "Gratuito",
            "created_at": null,
            "updated_at": null
          }
        ],
        "descriptions": [
          {
            "id": 26,
            "text": "A solo 5 km de la ciudad de Trinidad, naturaleza e historia devienen aliadas para ofrecer al visitante algo más que un simple recuerdo. Recorridos por senderos, baños en cascadas y pozas, paseos a caballo, encuentros con la realidad del pasado colonial y un servicio gastronómico donde reina como especialidad el pez gato, aseguran una experiencia inolvidable",
            "value_id": 13,
            "types_id": 5,
            "created_at": "2019-04-09 00:00:00",
            "updated_at": "2019-04-09 00:00:00"
          }
        ],
        "beacons": [],
        "events": [],
        "surveys": [
          {
            "id": 58,
            "order": 1,
            "question": "Limpieza del lugar.",
            "places_id": 13,
            "created_at": "2019-04-20 00:00:00",
            "updated_at": "2019-04-21 00:00:00"
          },
          {
            "id": 59,
            "order": 2,
            "question": "Precio de la entrada.",
            "places_id": 13,
            "created_at": "2019-04-20 00:00:00",
            "updated_at": "2019-04-21 00:00:00"
          },
          {
            "id": 60,
            "order": 3,
            "question": "Señalización",
            "places_id": 13,
            "created_at": "2019-04-20 00:00:00",
            "updated_at": "2019-04-21 00:00:00"
          }
        ]
      },
      {
        "id": 14,
        "name": "Casa de la Trova",
        "address": "29 Calle Cristo, Trinidad 6260",
        "opening_hours": "Horario: 12:00 - 22:00 hrs",
        "latitude": "21.8047071",
        "longitude": "-79.9854062",
        "phone": null,
        "url": null,
        "status": 1,
        "cities_id": 2,
        "categories_id": 2,
        "created_at": null,
        "updated_at": null,
        "category": {
          "id": 2,
          "name": "Servicios",
          "created_at": null,
          "updated_at": null
        },
        "tags": [
          {
            "id": 8,
            "tag_value": "Restaurante",
            "created_at": null,
            "updated_at": null
          },
          {
            "id": 9,
            "tag_value": "Baile",
            "created_at": null,
            "updated_at": null
          },
          {
            "id": 16,
            "tag_value": "Bar",
            "created_at": null,
            "updated_at": null
          }
        ],
        "descriptions": [
          {
            "id": 27,
            "text": "La Casa de la Trova es un sitio genial para escuchar la mejor música cubana en Trinidad mientras disfrutas de una buena bebida",
            "value_id": 14,
            "types_id": 5,
            "created_at": "2019-04-09 00:00:00",
            "updated_at": "2019-04-09 00:00:00"
          }
        ],
        "beacons": [],
        "events": [],
        "surveys": [
          {
            "id": 21,
            "order": 1,
            "question": "Cómo calificaría la cortesía y trato de los empleados",
            "places_id": 14,
            "created_at": "2019-04-20 00:00:00",
            "updated_at": "2019-04-20 00:00:00"
          },
          {
            "id": 22,
            "order": 2,
            "question": "La rapidez con la que le fue otorgado el servicio",
            "places_id": 14,
            "created_at": "2019-04-20 00:00:00",
            "updated_at": "2019-04-20 00:00:00"
          },
          {
            "id": 23,
            "order": 3,
            "question": "Cómo calificaría la limpieza",
            "places_id": 14,
            "created_at": "2019-04-20 00:00:00",
            "updated_at": "2019-04-20 00:00:00"
          },
          {
            "id": 24,
            "order": 4,
            "question": "La relación precio / calidad del servicio es",
            "places_id": 14,
            "created_at": "2019-04-20 00:00:00",
            "updated_at": "2019-04-20 00:00:00"
          }
        ]
      },
      {
        "id": 15,
        "name": "Convento de San Francisco de Asís",
        "address": "Calle Cristo, Trinidad, Cuba",
        "opening_hours": null,
        "latitude": "21.8062007",
        "longitude": "-79.9872414",
        "phone": null,
        "url": null,
        "status": 1,
        "cities_id": 2,
        "categories_id": 1,
        "created_at": null,
        "updated_at": null,
        "category": {
          "id": 1,
          "name": "Lugares",
          "created_at": null,
          "updated_at": null
        },
        "tags": [
          {
            "id": 14,
            "tag_value": "Sitios Históricos",
            "created_at": null,
            "updated_at": null
          },
          {
            "id": 17,
            "tag_value": "Religioso",
            "created_at": null,
            "updated_at": null
          }
        ],
        "descriptions": [
          {
            "id": 28,
            "text": "Fue una institución de tipo religiosa que existió en Trinidad, Cuba, durante la época colonial. Su construcción data de los siglos XVIII y XIX por parte de los monjes franciscanos y en especial por Fray José de la Cruz Ezpí de Valencia.",
            "value_id": 15,
            "types_id": 5,
            "created_at": "2019-04-09 00:00:00",
            "updated_at": "2019-04-09 00:00:00"
          }
        ],
        "beacons": [],
        "events": [],
        "surveys": [
          {
            "id": 61,
            "order": 1,
            "question": "Limpieza del lugar.",
            "places_id": 15,
            "created_at": "2019-04-20 00:00:00",
            "updated_at": "2019-04-21 00:00:00"
          },
          {
            "id": 62,
            "order": 2,
            "question": "Precio de la entrada.",
            "places_id": 15,
            "created_at": "2019-04-20 00:00:00",
            "updated_at": "2019-04-21 00:00:00"
          },
          {
            "id": 63,
            "order": 3,
            "question": "Señalización",
            "places_id": 15,
            "created_at": "2019-04-20 00:00:00",
            "updated_at": "2019-04-21 00:00:00"
          }
        ]
      },
      {
        "id": 16,
        "name": "Museo de Historia Municipal",
        "address": "Calle Simon Bolivar",
        "opening_hours": null,
        "latitude": "21.804756",
        "longitude": "-79.985466",
        "phone": null,
        "url": null,
        "status": 1,
        "cities_id": 2,
        "categories_id": 1,
        "created_at": null,
        "updated_at": null,
        "category": {
          "id": 1,
          "name": "Lugares",
          "created_at": null,
          "updated_at": null
        },
        "tags": [
          {
            "id": 10,
            "tag_value": "Museo",
            "created_at": null,
            "updated_at": null
          },
          {
            "id": 15,
            "tag_value": "Educativo",
            "created_at": null,
            "updated_at": null
          }
        ],
        "descriptions": [
          {
            "id": 29,
            "text": "Museo de historia regional con arquitectura neoclásica, murales y patio central.",
            "value_id": 16,
            "types_id": 5,
            "created_at": "2019-04-09 00:00:00",
            "updated_at": "2019-04-09 00:00:00"
          }
        ],
        "beacons": [],
        "events": [],
        "surveys": [
          {
            "id": 64,
            "order": 1,
            "question": "Limpieza del lugar.",
            "places_id": 16,
            "created_at": "2019-04-20 00:00:00",
            "updated_at": "2019-04-21 00:00:00"
          },
          {
            "id": 65,
            "order": 2,
            "question": "Precio de la entrada.",
            "places_id": 16,
            "created_at": "2019-04-20 00:00:00",
            "updated_at": "2019-04-21 00:00:00"
          },
          {
            "id": 66,
            "order": 3,
            "question": "Señalización",
            "places_id": 16,
            "created_at": "2019-04-20 00:00:00",
            "updated_at": "2019-04-21 00:00:00"
          }
        ]
      },
      {
        "id": 17,
        "name": "Restaurant Bar La Redaccion",
        "address": "Calle Gutiérrez",
        "opening_hours": "Horario: 11:30 - 22:30 hrs",
        "latitude": "21.8047071",
        "longitude": "-79.9854062",
        "phone": null,
        "url": null,
        "status": 1,
        "cities_id": 2,
        "categories_id": 2,
        "created_at": null,
        "updated_at": null,
        "category": {
          "id": 2,
          "name": "Servicios",
          "created_at": null,
          "updated_at": null
        },
        "tags": [
          {
            "id": 8,
            "tag_value": "Restaurante",
            "created_at": null,
            "updated_at": null
          },
          {
            "id": 11,
            "tag_value": "Vida Nocturna",
            "created_at": null,
            "updated_at": null
          },
          {
            "id": 16,
            "tag_value": "Bar",
            "created_at": null,
            "updated_at": null
          }
        ],
        "descriptions": [
          {
            "id": 30,
            "text": "La Redacción es un restaurante y bar cubano en una casa colonial tradicional del siglo XIX. ",
            "value_id": 17,
            "types_id": 5,
            "created_at": "2019-04-09 00:00:00",
            "updated_at": "2019-04-09 00:00:00"
          }
        ],
        "beacons": [],
        "events": [],
        "surveys": [
          {
            "id": 25,
            "order": 1,
            "question": "Cómo calificaría la cortesía y trato de los empleados",
            "places_id": 17,
            "created_at": "2019-04-20 00:00:00",
            "updated_at": "2019-04-20 00:00:00"
          },
          {
            "id": 26,
            "order": 2,
            "question": "La rapidez con la que le fue otorgado el servicio",
            "places_id": 17,
            "created_at": "2019-04-20 00:00:00",
            "updated_at": "2019-04-20 00:00:00"
          },
          {
            "id": 27,
            "order": 3,
            "question": "Cómo calificaría la limpieza",
            "places_id": 17,
            "created_at": "2019-04-20 00:00:00",
            "updated_at": "2019-04-20 00:00:00"
          },
          {
            "id": 28,
            "order": 4,
            "question": "La relación precio / calidad del servicio es",
            "places_id": 17,
            "created_at": "2019-04-20 00:00:00",
            "updated_at": "2019-04-20 00:00:00"
          }
        ]
      }
    ]
  },
  {
    "id": 3,
    "name": "Viñales del Río, Cuba",
    "slogan": "Disfruta de un colorido paisaje y una experiencia inolvidable.",
    "latitude": "22.6190207",
    "longitude": "-83.7246826",
    "order": 3,
    "created_at": "2019-04-09 00:00:00",
    "updated_at": "2019-04-09 00:00:00",
    "descriptions": [
      {
        "id": 9,
        "text": "La pintoresca ciudad de Viñales, ubicada dentro del Parque Nacional de Viñales, es para muchos uno de los lugares más fascinantes de toda Cuba. La localidad cuenta con testigos arquitectónicos de la época colonial que sumados a los valores ambientales hacen de Viñales un lugar de gran belleza, por lo cual no es de extrañar que haya sido declarado Monumento Nacional desde 1979.",
        "value_id": 3,
        "types_id": 2,
        "created_at": "2019-04-09 00:00:00",
        "updated_at": "2019-04-09 00:00:00"
      }
    ],
    "places": [
      {
        "id": 5,
        "name": "La cueva del indio",
        "address": "Valle de Viñales, Pinar del Río, Cuba.",
        "opening_hours": "Abierto de Lunes a Domingo de 9:00 a 17:00 hrs.",
        "latitude": "22.6693593",
        "longitude": "-83.7094644",
        "phone": null,
        "url": "https://www.visitarcuba.org/la-cueva-del-indio-vinales",
        "status": 1,
        "cities_id": 3,
        "categories_id": 1,
        "created_at": "2019-04-09 00:00:00",
        "updated_at": "2019-04-09 00:00:00",
        "category": {
          "id": 1,
          "name": "Lugares",
          "created_at": null,
          "updated_at": null
        },
        "tags": [
          {
            "id": 3,
            "tag_value": "Actividades al aire libre",
            "created_at": null,
            "updated_at": null
          },
          {
            "id": 4,
            "tag_value": "Gratuito",
            "created_at": null,
            "updated_at": null
          }
        ],
        "descriptions": [
          {
            "id": 5,
            "text": "La Cueva del Indio es un antiguo habitáculo indígena ubicado a 5,5 km al norte de Viñales y cercano al pueblo de San Vicente, en Cuba. Dentro de la cueva aparecieron pinturas rupestres y también algunos restos arqueológicos procedentes de culturas cubanas precolombinas. Por su interior discurre el río San Vicente y se puede recorrer un trecho de él en una lancha a motor. Es un reclamo muy interesante para los turistas debido a que las formaciones geológicas de estalactitas y estalagmitas que pue",
            "value_id": 5,
            "types_id": 5,
            "created_at": "2019-04-09 00:00:00",
            "updated_at": "2019-04-09 00:00:00"
          }
        ],
        "beacons": [
          {
            "id": 5,
            "minor": "014708",
            "uuid": "016554",
            "latitude": "0",
            "longitude": "0",
            "model": "A",
            "reference": "G",
            "status": 1,
            "places_id": 5,
            "photos_id": null,
            "descriptions": [
              {
                "id": 16,
                "text": "Prueba Beacon 5",
                "value_id": 5,
                "types_id": 3,
                "created_at": "2019-04-09 00:00:00",
                "updated_at": "2019-04-09 00:00:00"
              }
            ]
          }
        ],
        "events": [],
        "surveys": [
          {
            "id": 43,
            "order": 1,
            "question": "Limpieza del lugar.",
            "places_id": 5,
            "created_at": "2019-04-20 00:00:00",
            "updated_at": "2019-04-21 00:00:00"
          },
          {
            "id": 44,
            "order": 2,
            "question": "Precio de la entrada.",
            "places_id": 5,
            "created_at": "2019-04-20 00:00:00",
            "updated_at": "2019-04-21 00:00:00"
          },
          {
            "id": 45,
            "order": 3,
            "question": "Señalización",
            "places_id": 5,
            "created_at": "2019-04-20 00:00:00",
            "updated_at": "2019-04-21 00:00:00"
          }
        ]
      },
      {
        "id": 6,
        "name": "Hotel La Ermita",
        "address": "Carretera de La Ermita km.1, Viñales, Cuba",
        "opening_hours": "Recepción 24 horas",
        "latitude": "22.6120266",
        "longitude": "-83.7010305",
        "phone": "+53 48 796071",
        "url": "hotel-la-ermita-cuba.com",
        "status": 1,
        "cities_id": 3,
        "categories_id": 2,
        "created_at": "2019-04-09 00:00:00",
        "updated_at": "2019-04-09 00:00:00",
        "category": {
          "id": 2,
          "name": "Servicios",
          "created_at": null,
          "updated_at": null
        },
        "tags": [
          {
            "id": 7,
            "tag_value": "Hotel",
            "created_at": null,
            "updated_at": null
          },
          {
            "id": 8,
            "tag_value": "Restaurante",
            "created_at": null,
            "updated_at": null
          },
          {
            "id": 16,
            "tag_value": "Bar",
            "created_at": null,
            "updated_at": null
          }
        ],
        "descriptions": [
          {
            "id": 6,
            "text": "Ubicado en la cima de una pendiente del extraordinario entorno del Valle de Viñales, en la provincia de Pinar del Río, este hotel se integra de manera armoniosa a su entorno. Los huéspedes de la instalación tienen acceso a recorridos por senderos habilitados, con el propósito de apreciar de cerca la flora y fauna del lugar y el contacto con campesinos de la región que mantienen las tradiciones rurales y culturales más auténticas.",
            "value_id": 6,
            "types_id": 5,
            "created_at": "2019-04-09 00:00:00",
            "updated_at": "2019-04-09 00:00:00"
          }
        ],
        "beacons": [
          {
            "id": 6,
            "minor": "015472",
            "uuid": "0",
            "latitude": "0",
            "longitude": "0",
            "model": "A",
            "reference": "G",
            "status": 1,
            "places_id": 6,
            "photos_id": null,
            "descriptions": [
              {
                "id": 17,
                "text": "Prueba Beacon 6",
                "value_id": 6,
                "types_id": 3,
                "created_at": "2019-04-09 00:00:00",
                "updated_at": "2019-04-09 00:00:00"
              }
            ]
          }
        ],
        "events": [
          {
            "id": 6,
            "name": "Premio Nacional de Conservación y Restauración de Monumentos",
            "start_date": "2019-07-01 00:00:00",
            "end_date": "2019-07-01 00:00:00",
            "start_time": "09:00:00",
            "end_time": "12:00:00",
            "status": 1,
            "created_at": "2019-04-09 00:00:00",
            "updated_at": "2019-04-09 00:00:00",
            "descriptions": [
              {
                "id": 39,
                "text": "El Consejo Nacional de Patrimonio Cultural, tiene el gusto de invitarle a la entrega del Premio Nacional de Conservación y Restauración de Monumentos",
                "value_id": 6,
                "types_id": 4,
                "created_at": "2019-04-09 00:00:00",
                "updated_at": "2019-04-09 00:00:00"
              }
            ],
            "tags": []
          }
        ],
        "surveys": [
          {
            "id": 9,
            "order": 1,
            "question": "Cómo calificaría la cortesía y trato de los empleados",
            "places_id": 6,
            "created_at": "2019-04-20 00:00:00",
            "updated_at": "2019-04-20 00:00:00"
          },
          {
            "id": 10,
            "order": 2,
            "question": "La rapidez con la que le fue otorgado el servicio",
            "places_id": 6,
            "created_at": "2019-04-20 00:00:00",
            "updated_at": "2019-04-20 00:00:00"
          },
          {
            "id": 11,
            "order": 3,
            "question": "Cómo calificaría la limpieza",
            "places_id": 6,
            "created_at": "2019-04-20 00:00:00",
            "updated_at": "2019-04-20 00:00:00"
          },
          {
            "id": 12,
            "order": 4,
            "question": "La relación precio / calidad del servicio es",
            "places_id": 6,
            "created_at": "2019-04-20 00:00:00",
            "updated_at": "2019-04-20 00:00:00"
          }
        ]
      },
      {
        "id": 18,
        "name": "Jardín Botánico de Viñales",
        "address": "Viñales, Cuba",
        "opening_hours": "Horario: 08:00 - 19:00 hrs",
        "latitude": "22.6197207",
        "longitude": "-83.706130",
        "phone": "+53 5 4452207",
        "url": null,
        "status": 1,
        "cities_id": 3,
        "categories_id": 1,
        "created_at": null,
        "updated_at": null,
        "category": {
          "id": 1,
          "name": "Lugares",
          "created_at": null,
          "updated_at": null
        },
        "tags": [],
        "descriptions": [
          {
            "id": 31,
            "text": "Jardín botánico humilde y muy pequeño con plantas de Cuba, entre ellas, árboles, flores y frutas tropicales.",
            "value_id": 18,
            "types_id": 5,
            "created_at": "2019-04-09 00:00:00",
            "updated_at": "2019-04-09 00:00:00"
          }
        ],
        "beacons": [],
        "events": [],
        "surveys": [
          {
            "id": 67,
            "order": 1,
            "question": "Limpieza del lugar.",
            "places_id": 18,
            "created_at": "2019-04-20 00:00:00",
            "updated_at": "2019-04-21 00:00:00"
          },
          {
            "id": 68,
            "order": 2,
            "question": "Precio de la entrada.",
            "places_id": 18,
            "created_at": "2019-04-20 00:00:00",
            "updated_at": "2019-04-21 00:00:00"
          },
          {
            "id": 69,
            "order": 3,
            "question": "Señalización",
            "places_id": 18,
            "created_at": "2019-04-20 00:00:00",
            "updated_at": "2019-04-21 00:00:00"
          }
        ]
      },
      {
        "id": 19,
        "name": "El Campesino",
        "address": "Viñales, Cuba",
        "opening_hours": "Horario: 09:00 - 23:00 hrs",
        "latitude": "22.6159508",
        "longitude": "-83.7100484",
        "phone": null,
        "url": null,
        "status": 1,
        "cities_id": 3,
        "categories_id": 2,
        "created_at": null,
        "updated_at": null,
        "category": {
          "id": 2,
          "name": "Servicios",
          "created_at": null,
          "updated_at": null
        },
        "tags": [],
        "descriptions": [
          {
            "id": 32,
            "text": "Espacio familiar donde puede disfrutar del sabor de la comida cubana",
            "value_id": 19,
            "types_id": 5,
            "created_at": "2019-04-09 00:00:00",
            "updated_at": "2019-04-09 00:00:00"
          }
        ],
        "beacons": [],
        "events": [
          {
            "id": 7,
            "name": "XIII Bienal de La Habana",
            "start_date": "2019-07-01 00:00:00",
            "end_date": "2019-07-01 00:00:00",
            "start_time": "11:00:00",
            "end_time": "13:00:00",
            "status": 1,
            "created_at": "2019-04-09 00:00:00",
            "updated_at": "2019-04-09 00:00:00",
            "descriptions": [
              {
                "id": 40,
                "text": "El mayor evento de las artes visuales de Cuba",
                "value_id": 7,
                "types_id": 4,
                "created_at": "2019-04-09 00:00:00",
                "updated_at": "2019-04-09 00:00:00"
              }
            ],
            "tags": []
          }
        ],
        "surveys": [
          {
            "id": 29,
            "order": 1,
            "question": "Cómo calificaría la cortesía y trato de los empleados",
            "places_id": 19,
            "created_at": "2019-04-20 00:00:00",
            "updated_at": "2019-04-20 00:00:00"
          },
          {
            "id": 30,
            "order": 2,
            "question": "La rapidez con la que le fue otorgado el servicio",
            "places_id": 19,
            "created_at": "2019-04-20 00:00:00",
            "updated_at": "2019-04-20 00:00:00"
          },
          {
            "id": 31,
            "order": 3,
            "question": "Cómo calificaría la limpieza",
            "places_id": 19,
            "created_at": "2019-04-20 00:00:00",
            "updated_at": "2019-04-20 00:00:00"
          },
          {
            "id": 32,
            "order": 4,
            "question": "La relación precio / calidad del servicio es",
            "places_id": 19,
            "created_at": "2019-04-20 00:00:00",
            "updated_at": "2019-04-20 00:00:00"
          }
        ]
      },
      {
        "id": 20,
        "name": "Museo Municipal",
        "address": "115, Viñales, Cuba",
        "opening_hours": "Horario: 10:00 - 17:00 hrs",
        "latitude": "22.614813",
        "longitude": "-83.7130523",
        "phone": null,
        "url": null,
        "status": 1,
        "cities_id": 3,
        "categories_id": 1,
        "created_at": null,
        "updated_at": null,
        "category": {
          "id": 1,
          "name": "Lugares",
          "created_at": null,
          "updated_at": null
        },
        "tags": [],
        "descriptions": [
          {
            "id": 33,
            "text": "Museo de la ciudad.",
            "value_id": 20,
            "types_id": 5,
            "created_at": "2019-04-09 00:00:00",
            "updated_at": "2019-04-09 00:00:00"
          }
        ],
        "beacons": [],
        "events": [],
        "surveys": [
          {
            "id": 70,
            "order": 1,
            "question": "Limpieza del lugar.",
            "places_id": 20,
            "created_at": "2019-04-20 00:00:00",
            "updated_at": "2019-04-21 00:00:00"
          },
          {
            "id": 71,
            "order": 2,
            "question": "Precio de la entrada.",
            "places_id": 20,
            "created_at": "2019-04-20 00:00:00",
            "updated_at": "2019-04-21 00:00:00"
          },
          {
            "id": 72,
            "order": 3,
            "question": "Señalización",
            "places_id": 20,
            "created_at": "2019-04-20 00:00:00",
            "updated_at": "2019-04-21 00:00:00"
          }
        ]
      },
      {
        "id": 21,
        "name": "Valle de Viñales",
        "address": "Viñales, Cuba",
        "opening_hours": null,
        "latitude": "22.6051793",
        "longitude": "-83.7255639",
        "phone": null,
        "url": null,
        "status": 1,
        "cities_id": 3,
        "categories_id": 1,
        "created_at": null,
        "updated_at": null,
        "category": {
          "id": 1,
          "name": "Lugares",
          "created_at": null,
          "updated_at": null
        },
        "tags": [],
        "descriptions": [
          {
            "id": 34,
            "text": "El senderismo y ciclismo son populares en esta área rural con palmeras y famosa por el cultivo de tabaco.",
            "value_id": 21,
            "types_id": 5,
            "created_at": "2019-04-09 00:00:00",
            "updated_at": "2019-04-09 00:00:00"
          }
        ],
        "beacons": [],
        "events": [],
        "surveys": []
      },
      {
        "id": 22,
        "name": "Vinales Café",
        "address": "Viñales, Cuba",
        "opening_hours": "Horario: 10:00 - 17:00 hrs",
        "latitude": "22.6167296",
        "longitude": "-83.702529",
        "phone": null,
        "url": null,
        "status": 1,
        "cities_id": 3,
        "categories_id": 2,
        "created_at": null,
        "updated_at": null,
        "category": {
          "id": 2,
          "name": "Servicios",
          "created_at": null,
          "updated_at": null
        },
        "tags": [],
        "descriptions": [
          {
            "id": 35,
            "text": "Cafetería",
            "value_id": 22,
            "types_id": 5,
            "created_at": "2019-04-09 00:00:00",
            "updated_at": "2019-04-09 00:00:00"
          }
        ],
        "beacons": [],
        "events": [
          {
            "id": 9,
            "name": "Karaoke Night & Video Music Bar",
            "start_date": "2019-05-07 00:00:00",
            "end_date": "2019-05-07 00:00:00",
            "start_time": "22:00:00",
            "end_time": "02:00:00",
            "status": 1,
            "created_at": "2019-04-09 00:00:00",
            "updated_at": "2019-04-09 00:00:00",
            "descriptions": [
              {
                "id": 42,
                "text": "Ven a disfrutar del sonido y la calidad de un buen karaoke",
                "value_id": 9,
                "types_id": 4,
                "created_at": "2019-04-09 00:00:00",
                "updated_at": "2019-04-09 00:00:00"
              }
            ],
            "tags": []
          }
        ],
        "surveys": [
          {
            "id": 33,
            "order": 1,
            "question": "Cómo calificaría la cortesía y trato de los empleados",
            "places_id": 22,
            "created_at": "2019-04-20 00:00:00",
            "updated_at": "2019-04-20 00:00:00"
          },
          {
            "id": 34,
            "order": 2,
            "question": "La rapidez con la que le fue otorgado el servicio",
            "places_id": 22,
            "created_at": "2019-04-20 00:00:00",
            "updated_at": "2019-04-20 00:00:00"
          },
          {
            "id": 35,
            "order": 3,
            "question": "Cómo calificaría la limpieza",
            "places_id": 22,
            "created_at": "2019-04-20 00:00:00",
            "updated_at": "2019-04-20 00:00:00"
          },
          {
            "id": 36,
            "order": 4,
            "question": "La relación precio / calidad del servicio es",
            "places_id": 22,
            "created_at": "2019-04-20 00:00:00",
            "updated_at": "2019-04-20 00:00:00"
          }
        ]
      }
    ]
  }
]